<?xml version="1.0" encoding="UTF-8" standalone="no"?>
<svg
   xmlns:dc="http://purl.org/dc/elements/1.1/"
   xmlns:cc="http://creativecommons.org/ns#"
   xmlns:rdf="http://www.w3.org/1999/02/22-rdf-syntax-ns#"
   xmlns:svg="http://www.w3.org/2000/svg"
   xmlns="http://www.w3.org/2000/svg"
   xmlns:sodipodi="http://sodipodi.sourceforge.net/DTD/sodipodi-0.dtd"
   xmlns:inkscape="http://www.inkscape.org/namespaces/inkscape"
   width="247.22389mm"
   height="177.2023mm"
   viewBox="0 0 247.22389 177.2023"
   version="1.1"
   id="svg8"
   sodipodi:docname="parameterizedcomplexity3.svg"
   inkscape:version="1.0 (4035a4fb49, 2020-05-01)">
  <defs
     id="defs2">
    <rect
       x="99.045525"
       y="109.78481"
       width="176.99213"
       height="28.955185"
       id="rect1167" />
    <rect
       id="rect1167-3"
       height="28.955185"
       width="176.99213"
       y="109.78481"
       x="99.045525" />
    <rect
       id="rect1210"
       height="28.955185"
       width="176.99213"
       y="109.78481"
       x="99.045525" />
    <rect
       x="99.045525"
       y="109.78481"
       width="176.99213"
       height="28.955185"
       id="rect1167-3-1" />
    <rect
       x="99.045525"
       y="109.78481"
       width="176.99213"
       height="28.955185"
       id="rect1269" />
    <rect
       id="rect1167-3-1-9"
       height="28.955185"
       width="176.99213"
       y="109.78481"
       x="99.045525" />
    <rect
       id="rect1441"
       height="28.955185"
       width="176.99213"
       y="109.78481"
       x="99.045525" />
    <rect
       x="99.045525"
       y="109.78481"
       width="176.99213"
       height="28.955185"
       id="rect1167-3-1-9-9" />
    <rect
       x="99.045525"
       y="109.78481"
       width="176.99213"
       height="28.955185"
       id="rect1520" />
    <rect
       x="99.045525"
       y="109.78481"
       width="176.99213"
       height="28.955185"
       id="rect1167-3-1-9-8" />
    <rect
       x="99.045525"
       y="109.78481"
       width="176.99213"
       height="28.955185"
       id="rect1618" />
    <clipPath
       id="clipPath1192"
       clipPathUnits="userSpaceOnUse">
      <rect
         y="-12.499933"
         x="29.440088"
         height="177.2"
         width="70"
         id="rect1194"
         style="opacity:0.739031;fill:#6c5353;fill-rule:evenodd;stroke-width:0.264583" />
    </clipPath>
    <clipPath
       id="clipPath1196"
       clipPathUnits="userSpaceOnUse">
      <rect
         y="-12.499933"
         x="29.440088"
         height="177.2"
         width="70"
         id="rect1198"
         style="opacity:0.739031;fill:#6c5353;fill-rule:evenodd;stroke-width:0.264583" />
    </clipPath>
    <clipPath
       id="clipPath1200"
       clipPathUnits="userSpaceOnUse">
      <rect
         y="-12.499933"
         x="29.440088"
         height="177.2"
         width="70"
         id="rect1202"
         style="opacity:0.739031;fill:#6c5353;fill-rule:evenodd;stroke-width:0.264583" />
    </clipPath>
    <clipPath
       id="clipPath1204"
       clipPathUnits="userSpaceOnUse">
      <rect
         y="-12.499933"
         x="29.440088"
         height="177.2"
         width="70"
         id="rect1206"
         style="opacity:0.739031;fill:#6c5353;fill-rule:evenodd;stroke-width:0.264583" />
    </clipPath>
    <clipPath
       id="clipPath1208"
       clipPathUnits="userSpaceOnUse">
      <rect
         y="-12.499933"
         x="29.440088"
         height="177.2"
         width="70"
         id="rect1211"
         style="opacity:0.739031;fill:#6c5353;fill-rule:evenodd;stroke-width:0.264583" />
    </clipPath>
    <clipPath
       id="clipPath1213"
       clipPathUnits="userSpaceOnUse">
      <rect
         y="-12.499933"
         x="29.440088"
         height="177.2"
         width="70"
         id="rect1215"
         style="opacity:0.739031;fill:#6c5353;fill-rule:evenodd;stroke-width:0.264583" />
    </clipPath>
  </defs>
  <sodipodi:namedview
     id="base"
     pagecolor="#ffffff"
     bordercolor="#666666"
     borderopacity="1.0"
     inkscape:pageopacity="0.0"
     inkscape:pageshadow="2"
     inkscape:zoom="1.7807517"
     inkscape:cx="306.74509"
     inkscape:cy="568.72316"
     inkscape:document-units="mm"
     inkscape:current-layer="layer1"
     inkscape:document-rotation="0"
     showgrid="false"
     inkscape:window-width="1920"
     inkscape:window-height="1011"
     inkscape:window-x="0"
     inkscape:window-y="0"
     inkscape:window-maximized="1" />
  <metadata
     id="metadata5">
    <rdf:RDF>
      <cc:Work
         rdf:about="">
        <dc:format>image/svg+xml</dc:format>
        <dc:type
           rdf:resource="http://purl.org/dc/dcmitype/StillImage" />
        <dc:title />
      </cc:Work>
    </rdf:RDF>
  </metadata>
  <g
     inkscape:label="Layer 1"
     inkscape:groupmode="layer"
     id="layer1"
     transform="translate(-29.440602,12.500422)">
    <rect
       clip-path="url(#clipPath1213)"
       style="fill:#969696;fill-opacity:1;fill-rule:evenodd;stroke:#000000;stroke-width:1.05833;stroke-miterlimit:4;stroke-dasharray:none;stroke-opacity:1"
       id="rect849-3-5-6-2"
       width="246.14308"
       height="176.1431"
       x="29.969769"
       y="-11.971255"
       rx="10"
       ry="10" />
    <rect
       clip-path="url(#clipPath1208)"
       ry="10"
       rx="10"
       y="11.124392"
       x="36.319775"
       height="146.69745"
       width="216.69743"
       id="rect849-3-5-6"
       style="fill:#969696;fill-opacity:1;fill-rule:evenodd;stroke:#000000;stroke-width:1.05833;stroke-miterlimit:4;stroke-dasharray:none;stroke-opacity:1" />
    <rect
       clip-path="url(#clipPath1204)"
       style="fill:#969696;fill-opacity:1;fill-rule:evenodd;stroke:#000000;stroke-width:1.05833;stroke-miterlimit:4;stroke-dasharray:none;stroke-opacity:1"
       id="rect849-3-5"
       width="187.25529"
       height="117.25531"
       x="41.082279"
       y="35.804035"
       rx="10"
       ry="10" />
    <rect
       clip-path="url(#clipPath1200)"
       ry="10"
       rx="10"
       y="60.477509"
       x="45.844784"
       height="87.819344"
       width="157.81935"
       id="rect849-3"
       style="fill:#00c8ff;fill-opacity:1;fill-rule:evenodd;stroke:#000000;stroke-width:1.05833;stroke-miterlimit:4;stroke-dasharray:none;stroke-opacity:1" />
    <rect
       clip-path="url(#clipPath1192)"
       ry="10"
       rx="10"
       y="109.77418"
       x="55.360138"
       height="29.007338"
       width="99.007339"
       id="rect849-6"
       style="fill:#00c8ff;fill-opacity:1;fill-rule:evenodd;stroke:#000000;stroke-width:1.05833;stroke-miterlimit:4;stroke-dasharray:none;stroke-opacity:1" />
    <rect
       style="fill:#ffffff;fill-opacity:1;fill-rule:evenodd;stroke:#000000;stroke-width:1.08876;stroke-miterlimit:4;stroke-dasharray:none;stroke-opacity:1"
       id="rect977"
       width="177.06137"
       height="29.064703"
       x="99.058746"
       y="109.71828"
       inkscape:transform-center-x="41.476178"
       inkscape:transform-center-y="13.204444" />
    <rect
       inkscape:transform-center-y="11.222744"
       inkscape:transform-center-x="41.443435"
       y="85.0821"
       x="99.045525"
       height="24.702709"
       width="176.92163"
       id="rect977-9"
       style="fill:#ffffff;fill-opacity:1;fill-rule:evenodd;stroke:#000000;stroke-width:1.0542;stroke-miterlimit:4;stroke-dasharray:none;stroke-opacity:1" />
    <rect
       style="fill:#ffffff;fill-opacity:1;fill-rule:evenodd;stroke:#000000;stroke-width:1.05489;stroke-miterlimit:4;stroke-dasharray:none;stroke-opacity:1"
       id="rect977-9-1"
       width="177.00876"
       height="24.722755"
       x="99.045868"
       y="60.427448"
       inkscape:transform-center-x="41.463843"
       inkscape:transform-center-y="11.231855" />
    <rect
       inkscape:transform-center-y="11.252903"
       inkscape:transform-center-x="41.459218"
       y="35.787426"
       x="99.049339"
       height="24.769091"
       width="176.98903"
       id="rect977-9-1-2"
       style="fill:#ffffff;fill-opacity:1;fill-rule:evenodd;stroke:#000000;stroke-width:1.05582;stroke-miterlimit:4;stroke-dasharray:none;stroke-opacity:1" />
    <rect
       style="fill:#ffffff;fill-opacity:1;fill-rule:evenodd;stroke:#000000;stroke-width:1.08315;stroke-miterlimit:4;stroke-dasharray:none;stroke-opacity:1"
       id="rect977-9-1-2-7"
       width="177.02687"
       height="24.74255"
       x="99.057167"
       y="11.037048"
       inkscape:transform-center-x="41.468095"
       inkscape:transform-center-y="11.240844" />
    <rect
       inkscape:transform-center-y="10.466832"
       inkscape:transform-center-x="41.473939"
       y="-11.900286"
       x="99.0438"
       height="23.038851"
       width="177.05186"
       id="rect977-9-1-2-7-0"
       style="fill:#ffffff;fill-opacity:1;fill-rule:evenodd;stroke:#000000;stroke-width:1.04911;stroke-miterlimit:4;stroke-dasharray:none;stroke-opacity:1" />
    <rect
       inkscape:transform-center-y="4.2105035"
       inkscape:transform-center-x="41.385234"
       y="138.92671"
       x="99.14296"
       height="9.2678528"
       width="176.67314"
       id="rect977-93"
       style="fill:#ffffff;fill-opacity:1;fill-rule:evenodd;stroke:#000000;stroke-width:1.32108;stroke-miterlimit:4;stroke-dasharray:none;stroke-opacity:1" />
    <rect
       style="fill:#ffffff;fill-opacity:1;fill-rule:evenodd;stroke:#000000;stroke-width:0.944949;stroke-miterlimit:4;stroke-dasharray:none;stroke-opacity:1"
       id="rect977-93-0"
       width="177.04927"
       height="4.7316709"
       x="98.954895"
       y="148.38263"
       inkscape:transform-center-x="41.473342"
       inkscape:transform-center-y="2.1496563" />
    <rect
       inkscape:transform-center-y="2.1496563"
       inkscape:transform-center-x="41.473342"
       y="153.1143"
       x="98.954895"
       height="4.7316709"
       width="177.04927"
       id="rect977-93-0-6"
       style="fill:#ffffff;fill-opacity:1;fill-rule:evenodd;stroke:#000000;stroke-width:0.944949;stroke-miterlimit:4;stroke-dasharray:none;stroke-opacity:1" />
    <rect
       style="fill:#ffffff;fill-opacity:1;fill-rule:evenodd;stroke:#000000;stroke-width:1.09082;stroke-miterlimit:4;stroke-dasharray:none;stroke-opacity:1"
       id="rect977-93-0-6-2"
       width="176.9034"
       height="6.3104916"
       x="98.954895"
       y="157.84598"
       inkscape:transform-center-x="41.439171"
       inkscape:transform-center-y="2.8669348" />
    <text
       xml:space="preserve"
       id="text1165"
       style="font-style:normal;font-weight:normal;font-size:5.29167px;line-height:1.25;font-family:sans-serif;letter-spacing:0px;word-spacing:0px;white-space:pre;shape-inside:url(#rect1167);fill:#000000;fill-opacity:1;stroke:none;"
       transform="translate(1.8313041,2.7418397)"><tspan
         x="99.044922"
         y="114.30424"><tspan
           style="shape-inside:url(#rect1167)">Polynomial Kernel</tspan><tspan
           style="shape-inside:url(#rect1167)">	</tspan><tspan
           style="shape-inside:url(#rect1167)">	</tspan><tspan
           style="shape-inside:url(#rect1167)">	</tspan><tspan
           style="shape-inside:url(#rect1167)">• Reduce (</tspan><tspan
           style="font-style:normal;font-variant:normal;font-weight:normal;font-stretch:normal;font-family:TSCu_Times;-inkscape-font-specification:TSCu_Times">x</tspan><tspan
           style="shape-inside:url(#rect1167)">,</tspan><tspan
           style="font-style:normal;font-variant:normal;font-weight:normal;font-stretch:normal;font-family:TSCu_Times;-inkscape-font-specification:TSCu_Times">k</tspan><tspan
           style="shape-inside:url(#rect1167)">) to size </tspan><tspan
           style="font-style:normal;font-variant:normal;font-weight:normal;font-stretch:normal;font-family:TSCu_Times;-inkscape-font-specification:TSCu_Times">k</tspan><tspan
           style="font-style:normal;font-variant:normal;font-weight:normal;font-stretch:normal;font-size:65%;font-family:TSCu_Times;-inkscape-font-specification:TSCu_Times;baseline-shift:super">O</tspan><tspan
           style="font-size:65%;baseline-shift:super">(1)</tspan><tspan
           style="font-size:5.29167px;baseline-shift:super"> </tspan><tspan
           style="shape-inside:url(#rect1167)">in polynomial time</tspan></tspan></text>
    <text
       transform="translate(1.643988,-21.969117)"
       style="font-style:normal;font-weight:normal;font-size:5.29167px;line-height:1.25;font-family:sans-serif;letter-spacing:0px;word-spacing:0px;white-space:pre;shape-inside:url(#rect1167-3);fill:#000000;fill-opacity:1;stroke:none;"
       id="text1165-9"
       xml:space="preserve"><tspan
         x="99.044922"
         y="114.30424"><tspan
           style="shape-inside:url(#rect1167-3)">FPT</tspan><tspan
           style="shape-inside:url(#rect1167-3)">	</tspan><tspan
           style="shape-inside:url(#rect1167-3)">	</tspan><tspan
           style="shape-inside:url(#rect1167-3)">	</tspan><tspan
           style="shape-inside:url(#rect1167-3)">	</tspan><tspan
           style="shape-inside:url(#rect1167-3)">	</tspan><tspan
           style="shape-inside:url(#rect1167-3)">	</tspan><tspan
           style="shape-inside:url(#rect1167-3)">	</tspan><tspan
           style="shape-inside:url(#rect1167-3)">	</tspan><tspan
           style="shape-inside:url(#rect1167-3)">	</tspan><tspan
           style="shape-inside:url(#rect1167-3)">	</tspan><tspan
           style="shape-inside:url(#rect1167-3)">	</tspan><tspan
           style="shape-inside:url(#rect1167-3)">	</tspan><tspan
           style="shape-inside:url(#rect1167-3)">	</tspan><tspan
           style="shape-inside:url(#rect1167-3)">	</tspan><tspan
           style="shape-inside:url(#rect1167-3)">	</tspan><tspan
           style="shape-inside:url(#rect1167-3)">	</tspan><tspan
           style="shape-inside:url(#rect1167-3)"> • Problems solvable in time f(</tspan><tspan
           style="font-style:normal;font-variant:normal;font-weight:normal;font-stretch:normal;font-family:TSCu_Times;-inkscape-font-specification:TSCu_Times">k</tspan><tspan
           style="shape-inside:url(#rect1167-3)">)·|</tspan><tspan
           style="font-style:normal;font-variant:normal;font-weight:normal;font-stretch:normal;font-family:TSCu_Times;-inkscape-font-specification:TSCu_Times">x</tspan><tspan
           style="shape-inside:url(#rect1167-3)">|</tspan><tspan
           style="font-style:normal;font-variant:normal;font-weight:normal;font-stretch:normal;font-size:65%;font-family:TSCu_Times;-inkscape-font-specification:TSCu_Times;baseline-shift:super">O</tspan><tspan
           style="font-size:65%;baseline-shift:super">(1)</tspan><tspan
           style="font-size:5.29167px;baseline-shift:super">
</tspan></tspan><tspan
         x="99.044922"
         y="121.05657"><tspan
           style="shape-inside:url(#rect1167-3)">	</tspan><tspan
           style="shape-inside:url(#rect1167-3)">	</tspan><tspan
           style="shape-inside:url(#rect1167-3)">	</tspan><tspan
           style="shape-inside:url(#rect1167-3)">	</tspan><tspan
           style="shape-inside:url(#rect1167-3)">	</tspan><tspan
           style="shape-inside:url(#rect1167-3)">	</tspan><tspan
           style="shape-inside:url(#rect1167-3)">	</tspan><tspan
           style="shape-inside:url(#rect1167-3)">	</tspan><tspan
           style="shape-inside:url(#rect1167-3)">	</tspan><tspan
           style="shape-inside:url(#rect1167-3)">	</tspan><tspan
           style="shape-inside:url(#rect1167-3)">	</tspan><tspan
           style="shape-inside:url(#rect1167-3)">	</tspan><tspan
           style="shape-inside:url(#rect1167-3)">	</tspan><tspan
           style="shape-inside:url(#rect1167-3)">	</tspan><tspan
           style="shape-inside:url(#rect1167-3)">	</tspan><tspan
           style="shape-inside:url(#rect1167-3)">	</tspan><tspan
           style="shape-inside:url(#rect1167-3)">	</tspan><tspan
           style="shape-inside:url(#rect1167-3)">	</tspan><tspan
           style="shape-inside:url(#rect1167-3)">  </tspan><tspan
           style="shape-inside:url(#rect1167-3)">	</tspan><tspan
           style="shape-inside:url(#rect1167-3)">  </tspan><tspan
           style="shape-inside:url(#rect1167-3)"> • Reduce (</tspan><tspan
           style="font-style:normal;font-variant:normal;font-weight:normal;font-stretch:normal;font-family:TSCu_Times;-inkscape-font-specification:TSCu_Times">x</tspan><tspan
           style="shape-inside:url(#rect1167-3)">,</tspan><tspan
           style="font-style:normal;font-variant:normal;font-weight:normal;font-stretch:normal;font-family:TSCu_Times;-inkscape-font-specification:TSCu_Times">k</tspan><tspan
           style="shape-inside:url(#rect1167-3)">) to size </tspan><tspan
           style="font-style:normal;font-variant:normal;font-weight:normal;font-stretch:normal;font-family:TSCu_Times;-inkscape-font-specification:TSCu_Times">f</tspan><tspan
           style="shape-inside:url(#rect1167-3)">(</tspan><tspan
           style="font-style:normal;font-variant:normal;font-weight:normal;font-stretch:normal;font-family:TSCu_Times;-inkscape-font-specification:TSCu_Times">k</tspan><tspan
           style="shape-inside:url(#rect1167-3)">) in polynomial time</tspan></tspan></text>
    <text
       xml:space="preserve"
       id="text1165-9-2"
       style="font-style:normal;font-weight:normal;font-size:5.29167px;line-height:1.55;font-family:sans-serif;letter-spacing:0px;word-spacing:0px;white-space:pre;shape-inside:url(#rect1167-3-1);fill:#000000;fill-opacity:1;stroke:none;"
       transform="translate(1.9968846,-47.008433)"><tspan
         x="99.044922"
         y="115.09799"><tspan
           style="shape-inside:url(#rect1167-3-1)">W[1]</tspan><tspan
           style="shape-inside:url(#rect1167-3-1)">	</tspan><tspan
           style="shape-inside:url(#rect1167-3-1)">	</tspan><tspan
           style="shape-inside:url(#rect1167-3-1)">	</tspan><tspan
           style="shape-inside:url(#rect1167-3-1)">	</tspan><tspan
           style="shape-inside:url(#rect1167-3-1)">	</tspan><tspan
           style="shape-inside:url(#rect1167-3-1)">	</tspan><tspan
           style="shape-inside:url(#rect1167-3-1)">	</tspan><tspan
           style="shape-inside:url(#rect1167-3-1)">	</tspan><tspan
           style="shape-inside:url(#rect1167-3-1)">	</tspan><tspan
           style="shape-inside:url(#rect1167-3-1)">	</tspan><tspan
           style="shape-inside:url(#rect1167-3-1)">	</tspan><tspan
           style="shape-inside:url(#rect1167-3-1)">	</tspan><tspan
           style="shape-inside:url(#rect1167-3-1)">	</tspan><tspan
           style="shape-inside:url(#rect1167-3-1)">	</tspan><tspan
           style="shape-inside:url(#rect1167-3-1)">	</tspan><tspan
           style="shape-inside:url(#rect1167-3-1)">	</tspan><tspan
           style="shape-inside:url(#rect1167-3-1)">• Problems that FPT-reduce to </tspan><tspan
           style="font-style:normal;font-variant:normal;font-weight:normal;font-stretch:normal;font-family:TSCu_Times;-inkscape-font-specification:TSCu_Times">k</tspan><tspan
           style="shape-inside:url(#rect1167-3-1)">-Clique</tspan></tspan></text>
    <text
       transform="translate(2.1229892,-72.713895)"
       style="font-style:normal;font-weight:normal;font-size:5.29167px;line-height:1.55;font-family:sans-serif;letter-spacing:0px;word-spacing:0px;white-space:pre;shape-inside:url(#rect1167-3-1-9);fill:#000000;fill-opacity:1;stroke:none;"
       id="text1165-9-2-3"
       xml:space="preserve"><tspan
         x="99.044922"
         y="115.09799"><tspan
           style="shape-inside:url(#rect1167-3-1-9)">W[2]</tspan><tspan
           style="shape-inside:url(#rect1167-3-1-9)">	</tspan><tspan
           style="shape-inside:url(#rect1167-3-1-9)">	</tspan><tspan
           style="shape-inside:url(#rect1167-3-1-9)">	</tspan><tspan
           style="shape-inside:url(#rect1167-3-1-9)">	</tspan><tspan
           style="shape-inside:url(#rect1167-3-1-9)">	</tspan><tspan
           style="shape-inside:url(#rect1167-3-1-9)">	</tspan><tspan
           style="shape-inside:url(#rect1167-3-1-9)">	</tspan><tspan
           style="shape-inside:url(#rect1167-3-1-9)">	</tspan><tspan
           style="shape-inside:url(#rect1167-3-1-9)">	</tspan><tspan
           style="shape-inside:url(#rect1167-3-1-9)">	</tspan><tspan
           style="shape-inside:url(#rect1167-3-1-9)">	</tspan><tspan
           style="shape-inside:url(#rect1167-3-1-9)">	</tspan><tspan
           style="shape-inside:url(#rect1167-3-1-9)">	</tspan><tspan
           style="shape-inside:url(#rect1167-3-1-9)">	</tspan><tspan
           style="shape-inside:url(#rect1167-3-1-9)">	</tspan><tspan
           style="shape-inside:url(#rect1167-3-1-9)">	</tspan><tspan
           style="shape-inside:url(#rect1167-3-1-9)">• Problems that FPT-reduce to </tspan><tspan
           style="font-style:normal;font-variant:normal;font-weight:normal;font-stretch:normal;font-family:TSCu_Times;-inkscape-font-specification:TSCu_Times">k</tspan><tspan
           style="shape-inside:url(#rect1167-3-1-9)">-Dominating Set</tspan></tspan></text>
    <text
       xml:space="preserve"
       id="text1165-9-2-3-0"
       style="font-style:normal;font-weight:normal;font-size:5.29167px;line-height:1.55;font-family:sans-serif;letter-spacing:0px;word-spacing:0px;white-space:pre;shape-inside:url(#rect1167-3-1-9-9);fill:#000000;fill-opacity:1;stroke:none;"
       transform="translate(2.0214262,-97.480058)"><tspan
         x="99.044922"
         y="115.09799"><tspan
           style="shape-inside:url(#rect1167-3-1-9-9)">....   </tspan><tspan
           style="shape-inside:url(#rect1167-3-1-9-9)">	</tspan><tspan
           style="shape-inside:url(#rect1167-3-1-9-9)">	</tspan><tspan
           style="shape-inside:url(#rect1167-3-1-9-9)">	</tspan><tspan
           style="shape-inside:url(#rect1167-3-1-9-9)">	</tspan><tspan
           style="shape-inside:url(#rect1167-3-1-9-9)">	</tspan><tspan
           style="shape-inside:url(#rect1167-3-1-9-9)">	</tspan><tspan
           style="shape-inside:url(#rect1167-3-1-9-9)">	</tspan><tspan
           style="shape-inside:url(#rect1167-3-1-9-9)">	</tspan><tspan
           style="shape-inside:url(#rect1167-3-1-9-9)">	</tspan><tspan
           style="shape-inside:url(#rect1167-3-1-9-9)">	</tspan><tspan
           style="shape-inside:url(#rect1167-3-1-9-9)">	</tspan><tspan
           style="shape-inside:url(#rect1167-3-1-9-9)">	</tspan><tspan
           style="shape-inside:url(#rect1167-3-1-9-9)">	</tspan><tspan
           style="shape-inside:url(#rect1167-3-1-9-9)">	</tspan><tspan
           style="shape-inside:url(#rect1167-3-1-9-9)">	</tspan><tspan
           style="shape-inside:url(#rect1167-3-1-9-9)">	</tspan><tspan
           style="shape-inside:url(#rect1167-3-1-9-9)">• Infinite hierarchy W[...] based on weft</tspan></tspan></text>
    <text
       xml:space="preserve"
       id="text1165-9-2-3-8"
       style="font-style:normal;font-weight:normal;font-size:5.29167px;line-height:1.55;font-family:sans-serif;letter-spacing:0px;word-spacing:0px;white-space:pre;shape-inside:url(#rect1167-3-1-9-8);fill:#000000;fill-opacity:1;stroke:none;"
       transform="translate(1.4774467,-120.59087)"><tspan
         x="99.044922"
         y="115.09799"><tspan
           style="shape-inside:url(#rect1167-3-1-9-8)">XP </tspan><tspan
           style="shape-inside:url(#rect1167-3-1-9-8)">	</tspan><tspan
           style="shape-inside:url(#rect1167-3-1-9-8)">	</tspan><tspan
           style="shape-inside:url(#rect1167-3-1-9-8)">	</tspan><tspan
           style="shape-inside:url(#rect1167-3-1-9-8)">	</tspan><tspan
           style="shape-inside:url(#rect1167-3-1-9-8)">	</tspan><tspan
           style="shape-inside:url(#rect1167-3-1-9-8)">	</tspan><tspan
           style="shape-inside:url(#rect1167-3-1-9-8)">	</tspan><tspan
           style="shape-inside:url(#rect1167-3-1-9-8)">	</tspan><tspan
           style="shape-inside:url(#rect1167-3-1-9-8)">	</tspan><tspan
           style="shape-inside:url(#rect1167-3-1-9-8)">	</tspan><tspan
           style="shape-inside:url(#rect1167-3-1-9-8)">	</tspan><tspan
           style="shape-inside:url(#rect1167-3-1-9-8)">	</tspan><tspan
           style="shape-inside:url(#rect1167-3-1-9-8)">	</tspan><tspan
           style="shape-inside:url(#rect1167-3-1-9-8)">	</tspan><tspan
           style="shape-inside:url(#rect1167-3-1-9-8)">	</tspan><tspan
           style="shape-inside:url(#rect1167-3-1-9-8)">	</tspan><tspan
           style="shape-inside:url(#rect1167-3-1-9-8)">	</tspan><tspan
           style="shape-inside:url(#rect1167-3-1-9-8)">• Problems solvable in time </tspan><tspan
           style="font-style:normal;font-variant:normal;font-weight:normal;font-stretch:normal;font-family:TSCu_Times;-inkscape-font-specification:TSCu_Times">f</tspan><tspan
           style="shape-inside:url(#rect1167-3-1-9-8)">(</tspan><tspan
           style="font-style:normal;font-variant:normal;font-weight:normal;font-stretch:normal;font-family:TSCu_Times;-inkscape-font-specification:TSCu_Times">k</tspan><tspan
           style="shape-inside:url(#rect1167-3-1-9-8)">)·|</tspan><tspan
           style="font-style:normal;font-variant:normal;font-weight:normal;font-stretch:normal;font-family:TSCu_Times;-inkscape-font-specification:TSCu_Times">x</tspan><tspan
           style="shape-inside:url(#rect1167-3-1-9-8)">|</tspan><tspan
           style="font-style:normal;font-variant:normal;font-weight:normal;font-stretch:normal;font-size:65%;font-family:TSCu_Times;-inkscape-font-specification:TSCu_Times;baseline-shift:super">g</tspan><tspan
           style="font-size:65%;baseline-shift:super">(</tspan><tspan
           style="font-style:normal;font-variant:normal;font-weight:normal;font-stretch:normal;font-size:65%;font-family:TSCu_Times;-inkscape-font-specification:TSCu_Times;baseline-shift:super">k</tspan><tspan
           style="font-size:65%;baseline-shift:super">)</tspan></tspan></text>
  </g>
</svg>
